%!PS-Adobe-3.0 EPSF-3.0
%%Title: tmp.eps
%%Creator: matplotlib version 0.99.1.1, http://matplotlib.sourceforge.net/
%%CreationDate: Mon Oct 28 11:26:56 2013
%%Orientation: portrait
%%BoundingBox: 13 175 598 616
%%EndComments
%%BeginProlog
/mpldict 8 dict def
mpldict begin
/m { moveto } bind def
/l { lineto } bind def
/r { rlineto } bind def
/c { curveto } bind def
/cl { closepath } bind def
/box {
m
1 index 0 r
0 exch r
neg 0 r
cl
} bind def
/clipbox {
box
clip
newpath
} bind def
%!PS-Adobe-3.0 Resource-Font
%%Title: DejaVu Sans
%%Copyright: Copyright (c) 2003 by Bitstream, Inc. All Rights Reserved. Copyright (c) 2006 by Tavmjong Bah. All Rights Reserved. DejaVu changes are in public domain 
%%Creator: Converted from TrueType by PPR
25 dict begin
/_d{bind def}bind def
/_m{moveto}_d
/_l{lineto}_d
/_cl{closepath eofill}_d
/_c{curveto}_d
/_sc{7 -1 roll{setcachedevice}{pop pop pop pop pop pop}ifelse}_d
/_e{exec}_d
/FontName /DejaVuSans def
/PaintType 0 def
/FontMatrix[.001 0 0 .001 0 0]def
/FontBBox[-1020 -349 1681 1167]def
/FontType 3 def
/Encoding StandardEncoding def
/FontInfo 10 dict dup begin
/FamilyName (DejaVu Sans) def
/FullName (DejaVu Sans) def
/Notice (Copyright (c) 2003 by Bitstream, Inc. All Rights Reserved. Copyright (c) 2006 by Tavmjong Bah. All Rights Reserved. DejaVu changes are in public domain ) def
/Weight (Book) def
/Version (Version 2.30) def
/ItalicAngle 0.0 def
/isFixedPitch false def
/UnderlinePosition -130 def
/UnderlineThickness 90 def
end readonly def
/CharStrings 10 dict dup begin
/zero{636 0 66 -13 570 742 _sc
318 664 _m
267 664 229 639 203 589 _c
177 539 165 464 165 364 _c
165 264 177 189 203 139 _c
229 89 267 64 318 64 _c
369 64 407 89 433 139 _c
458 189 471 264 471 364 _c
471 464 458 539 433 589 _c
407 639 369 664 318 664 _c
318 742 _m
399 742 461 709 505 645 _c
548 580 570 486 570 364 _c
570 241 548 147 505 83 _c
461 19 399 -13 318 -13 _c
236 -13 173 19 130 83 _c
87 147 66 241 66 364 _c
66 486 87 580 130 645 _c
173 709 236 742 318 742 _c
_cl}_d
/one{636 0 110 0 544 729 _sc
124 83 _m
285 83 _l
285 639 _l
110 604 _l
110 694 _l
284 729 _l
383 729 _l
383 83 _l
544 83 _l
544 0 _l
124 0 _l
124 83 _l
_cl}_d
/two{{636 0 73 0 536 742 _sc
192 83 _m
536 83 _l
536 0 _l
73 0 _l
73 83 _l
110 121 161 173 226 239 _c
290 304 331 346 348 365 _c
380 400 402 430 414 455 _c
426 479 433 504 433 528 _c
433 566 419 598 392 622 _c
365 646 330 659 286 659 _c
255 659 222 653 188 643 _c
154 632 117 616 78 594 _c
78 694 _l
118 710 155 722 189 730 _c
223 738 255 742 284 742 _c
359 742 419 723 464 685 _c
509 647 532 597 532 534 _c
532 504 526 475 515 449 _c
504 422 484 390 454 354 _c
446 344 420 317 376 272 _c
332 227 271 164 192 83 _c
_cl}_e}_d
/three{{636 0 76 -13 556 742 _sc
406 393 _m
453 383 490 362 516 330 _c
542 298 556 258 556 212 _c
556 140 531 84 482 45 _c
432 6 362 -13 271 -13 _c
240 -13 208 -10 176 -4 _c
144 1 110 10 76 22 _c
76 117 _l
103 101 133 89 166 81 _c
198 73 232 69 268 69 _c
330 69 377 81 409 105 _c
441 129 458 165 458 212 _c
458 254 443 288 413 312 _c
383 336 341 349 287 349 _c
202 349 _l
202 430 _l
291 430 _l
339 430 376 439 402 459 _c
428 478 441 506 441 543 _c
441 580 427 609 401 629 _c
374 649 336 659 287 659 _c
260 659 231 656 200 650 _c
169 644 135 635 98 623 _c
98 711 _l
135 721 170 729 203 734 _c
235 739 266 742 296 742 _c
}_e{370 742 429 725 473 691 _c
517 657 539 611 539 553 _c
539 513 527 479 504 451 _c
481 423 448 403 406 393 _c
_cl}_e}_d
/four{636 0 49 0 580 729 _sc
378 643 _m
129 254 _l
378 254 _l
378 643 _l
352 729 _m
476 729 _l
476 254 _l
580 254 _l
580 172 _l
476 172 _l
476 0 _l
378 0 _l
378 172 _l
49 172 _l
49 267 _l
352 729 _l
_cl}_d
/five{{636 0 77 -13 549 729 _sc
108 729 _m
495 729 _l
495 646 _l
198 646 _l
198 467 _l
212 472 227 476 241 478 _c
255 480 270 482 284 482 _c
365 482 429 459 477 415 _c
525 370 549 310 549 234 _c
549 155 524 94 475 51 _c
426 8 357 -13 269 -13 _c
238 -13 207 -10 175 -6 _c
143 -1 111 6 77 17 _c
77 116 _l
106 100 136 88 168 80 _c
199 72 232 69 267 69 _c
323 69 368 83 401 113 _c
433 143 450 183 450 234 _c
450 284 433 324 401 354 _c
368 384 323 399 267 399 _c
241 399 214 396 188 390 _c
162 384 135 375 108 363 _c
108 729 _l
_cl}_e}_d
/six{{636 0 70 -13 573 742 _sc
330 404 _m
286 404 251 388 225 358 _c
199 328 186 286 186 234 _c
186 181 199 139 225 109 _c
251 79 286 64 330 64 _c
374 64 409 79 435 109 _c
461 139 474 181 474 234 _c
474 286 461 328 435 358 _c
409 388 374 404 330 404 _c
526 713 _m
526 623 _l
501 635 476 644 451 650 _c
425 656 400 659 376 659 _c
310 659 260 637 226 593 _c
192 549 172 482 168 394 _c
187 422 211 444 240 459 _c
269 474 301 482 336 482 _c
409 482 467 459 509 415 _c
551 371 573 310 573 234 _c
573 159 550 99 506 54 _c
462 9 403 -13 330 -13 _c
246 -13 181 19 137 83 _c
92 147 70 241 70 364 _c
70 479 97 571 152 639 _c
206 707 280 742 372 742 _c
}_e{396 742 421 739 447 735 _c
472 730 498 723 526 713 _c
_cl}_e}_d
/seven{636 0 82 0 551 729 _sc
82 729 _m
551 729 _l
551 687 _l
286 0 _l
183 0 _l
432 646 _l
82 646 _l
82 729 _l
_cl}_d
/eight{{636 0 68 -13 568 742 _sc
318 346 _m
271 346 234 333 207 308 _c
180 283 167 249 167 205 _c
167 161 180 126 207 101 _c
234 76 271 64 318 64 _c
364 64 401 76 428 102 _c
455 127 469 161 469 205 _c
469 249 455 283 429 308 _c
402 333 365 346 318 346 _c
219 388 _m
177 398 144 418 120 447 _c
96 476 85 511 85 553 _c
85 611 105 657 147 691 _c
188 725 245 742 318 742 _c
390 742 447 725 489 691 _c
530 657 551 611 551 553 _c
551 511 539 476 515 447 _c
491 418 459 398 417 388 _c
464 377 501 355 528 323 _c
554 291 568 251 568 205 _c
568 134 546 80 503 43 _c
459 5 398 -13 318 -13 _c
237 -13 175 5 132 43 _c
89 80 68 134 68 205 _c
68 251 81 291 108 323 _c
134 355 171 377 219 388 _c
}_e{183 544 _m
183 506 194 476 218 455 _c
242 434 275 424 318 424 _c
360 424 393 434 417 455 _c
441 476 453 506 453 544 _c
453 582 441 611 417 632 _c
393 653 360 664 318 664 _c
275 664 242 653 218 632 _c
194 611 183 582 183 544 _c
_cl}_e}_d
/minus{838 0 106 272 732 355 _sc
106 355 _m
732 355 _l
732 272 _l
106 272 _l
106 355 _l
_cl}_d
end readonly def

/BuildGlyph
 {exch begin
 CharStrings exch
 2 copy known not{pop /.notdef}if
 true 3 1 roll get exec
 end}_d

/BuildChar {
 1 index /Encoding get exch get
 1 index /BuildGlyph get exec
}_d

FontName currentdict end definefont pop
end
%%EndProlog
mpldict begin
13.5 175.5 translate
585 441 0 0 clipbox
1.000 setlinewidth
1 setlinejoin
2 setlinecap
[] 0 setdash
1.000 setgray
gsave
0 0 m
585 0 l
585 441 l
0 441 l
0 0 l
gsave
fill
grestore
stroke
grestore
gsave
73.125 44.1 m
526.5 44.1 l
526.5 396.9 l
73.125 396.9 l
73.125 44.1 l
fill
grestore
0.500 setlinewidth
0 setlinecap
0.000 setgray
gsave
453.4 352.8 73.12 44.1 clipbox
/o {
gsave
newpath
translate
0 -3 m
0.795609 -3 1.55874 -2.6839 2.12132 -2.12132 c
2.6839 -1.55874 3 -0.795609 3 0 c
3 0.795609 2.6839 1.55874 2.12132 2.12132 c
1.55874 2.6839 0.795609 3 0 3 c
-0.795609 3 -1.55874 2.6839 -2.12132 2.12132 c
-2.6839 1.55874 -3 0.795609 -3 0 c
-3 -0.795609 -2.6839 -1.55874 -2.12132 -2.12132 c
-1.55874 -2.6839 -0.795609 -3 0 -3 c
cl
gsave
1.000 0.000 0.000 setrgbcolor
fill
grestore
stroke
grestore
} bind def
118.463 359.738 o
118.463 359.738 o
118.463 359.738 o
118.463 359.738 o
118.463 359.738 o
118.463 359.738 o
118.463 359.738 o
118.463 359.738 o
118.463 359.738 o
118.463 359.738 o
118.463 359.738 o
118.463 359.737 o
118.463 359.737 o
118.463 359.737 o
118.463 359.737 o
118.463 359.737 o
118.464 359.736 o
118.464 359.736 o
118.464 359.736 o
118.464 359.736 o
118.464 359.735 o
118.464 359.735 o
118.464 359.735 o
118.464 359.734 o
118.464 359.734 o
118.464 359.734 o
118.464 359.733 o
118.464 359.733 o
118.464 359.732 o
118.464 359.732 o
118.464 359.732 o
118.464 359.731 o
118.465 359.731 o
118.465 359.73 o
118.465 359.73 o
118.465 359.729 o
118.465 359.729 o
118.465 359.728 o
118.465 359.728 o
118.465 359.727 o
118.465 359.726 o
118.465 359.726 o
118.465 359.725 o
118.465 359.725 o
118.465 359.724 o
118.465 359.723 o
118.465 359.723 o
118.465 359.722 o
118.466 359.721 o
118.466 359.721 o
118.466 359.72 o
118.466 359.719 o
118.466 359.718 o
118.466 359.718 o
118.466 359.717 o
118.466 359.716 o
118.466 359.715 o
118.466 359.714 o
118.466 359.714 o
118.466 359.713 o
118.466 359.712 o
118.466 359.711 o
118.466 359.71 o
118.466 359.709 o
118.467 359.708 o
118.467 359.707 o
118.467 359.706 o
118.467 359.705 o
118.467 359.704 o
118.467 359.703 o
118.467 359.702 o
118.467 359.701 o
118.467 359.7 o
118.467 359.699 o
118.467 359.698 o
118.467 359.697 o
118.467 359.696 o
118.467 359.695 o
118.467 359.694 o
118.467 359.693 o
118.468 359.692 o
118.468 359.69 o
118.468 359.689 o
118.468 359.688 o
118.468 359.687 o
118.468 359.686 o
118.468 359.684 o
118.468 359.683 o
118.468 359.682 o
118.468 359.681 o
118.468 359.679 o
118.468 359.678 o
118.468 359.677 o
118.468 359.676 o
118.468 359.674 o
118.468 359.673 o
118.468 359.671 o
118.469 359.67 o
118.469 359.669 o
118.469 359.667 o
118.469 359.666 o
118.469 359.664 o
118.469 359.663 o
118.469 359.662 o
118.469 359.66 o
118.469 359.659 o
118.469 359.657 o
118.469 359.656 o
118.469 359.654 o
118.469 359.652 o
118.469 359.651 o
118.469 359.649 o
118.469 359.648 o
118.47 359.646 o
118.47 359.645 o
118.47 359.643 o
118.47 359.641 o
118.47 359.64 o
118.47 359.638 o
118.47 359.636 o
118.47 359.635 o
118.47 359.633 o
118.47 359.631 o
118.47 359.629 o
118.47 359.628 o
118.47 359.626 o
118.47 359.624 o
118.47 359.622 o
118.47 359.621 o
118.47 359.619 o
118.471 359.617 o
118.471 359.615 o
118.471 359.613 o
118.471 359.611 o
118.471 359.609 o
118.471 359.608 o
118.471 359.606 o
118.471 359.604 o
118.471 359.602 o
118.471 359.6 o
118.471 359.598 o
118.471 359.596 o
118.471 359.594 o
118.471 359.592 o
118.471 359.59 o
118.471 359.588 o
118.471 359.586 o
118.472 359.584 o
118.472 359.582 o
118.472 359.58 o
118.472 359.577 o
118.472 359.575 o
118.472 359.573 o
118.472 359.571 o
118.472 359.569 o
118.472 359.567 o
118.472 359.565 o
118.472 359.562 o
118.472 359.56 o
118.472 359.558 o
118.472 359.556 o
118.472 359.554 o
118.472 359.551 o
118.472 359.549 o
118.472 359.547 o
118.473 359.544 o
118.473 359.542 o
118.473 359.54 o
118.473 359.537 o
118.473 359.535 o
118.473 359.533 o
118.473 359.53 o
118.473 359.528 o
118.473 359.526 o
118.473 359.523 o
118.473 359.521 o
118.473 359.518 o
118.473 359.516 o
118.473 359.513 o
118.473 359.511 o
118.473 359.508 o
118.473 359.506 o
118.473 359.503 o
118.474 359.501 o
118.474 359.498 o
118.474 359.496 o
118.474 359.493 o
118.474 359.491 o
118.474 359.488 o
118.474 359.486 o
118.474 359.483 o
118.474 359.48 o
118.474 359.478 o
118.474 359.475 o
118.474 359.472 o
118.474 359.47 o
118.474 359.467 o
118.474 359.464 o
118.474 359.462 o
118.474 359.459 o
118.474 359.456 o
118.475 359.453 o
118.475 359.451 o
118.475 359.448 o
118.475 359.445 o
118.475 359.442 o
118.475 359.439 o
118.475 359.437 o
118.475 359.434 o
118.475 359.431 o
118.475 359.428 o
118.475 359.425 o
118.475 359.422 o
118.475 359.419 o
118.475 359.417 o
118.475 359.414 o
118.475 359.411 o
118.475 359.408 o
118.475 359.405 o
118.475 359.402 o
118.476 359.399 o
118.476 359.396 o
118.476 359.393 o
118.476 359.39 o
118.476 359.387 o
118.476 359.384 o
118.476 359.381 o
118.476 359.378 o
118.476 359.375 o
118.476 359.372 o
118.476 359.368 o
118.476 359.365 o
118.476 359.362 o
118.476 359.359 o
118.476 359.356 o
118.476 359.353 o
118.476 359.35 o
118.476 359.346 o
118.476 359.343 o
118.476 359.34 o
118.477 359.337 o
118.477 359.334 o
118.477 359.33 o
118.477 359.327 o
118.477 359.324 o
118.477 359.321 o
118.477 359.317 o
118.477 359.314 o
118.477 359.311 o
118.477 359.307 o
118.477 359.304 o
118.477 359.301 o
118.477 359.297 o
118.477 359.294 o
118.477 359.291 o
118.477 359.287 o
118.477 359.284 o
118.477 359.28 o
118.477 359.277 o
118.477 359.274 o
118.478 359.27 o
118.478 359.267 o
118.478 359.263 o
118.478 359.26 o
118.478 359.256 o
118.478 359.253 o
118.478 359.249 o
118.478 359.246 o
118.478 359.242 o
118.478 359.239 o
118.478 359.235 o
118.478 359.232 o
118.478 359.228 o
118.478 359.224 o
118.478 359.221 o
118.478 359.217 o
118.478 359.214 o
118.478 359.21 o
118.478 359.206 o
118.478 359.203 o
118.478 359.199 o
118.479 359.195 o
118.479 359.192 o
118.479 359.188 o
118.479 359.184 o
118.479 359.181 o
118.479 359.177 o
118.479 359.173 o
118.479 359.169 o
118.479 359.166 o
118.479 359.162 o
118.479 359.158 o
118.479 359.154 o
118.479 359.151 o
118.479 359.147 o
118.479 359.143 o
118.479 359.139 o
118.479 359.135 o
118.479 359.132 o
118.479 359.128 o
118.479 359.124 o
118.479 359.12 o
118.479 359.116 o
118.479 359.112 o
118.48 359.108 o
118.48 359.104 o
118.48 359.1 o
118.48 359.097 o
118.48 359.093 o
118.48 359.089 o
118.48 359.085 o
118.48 359.081 o
118.48 359.077 o
118.48 359.073 o
118.48 359.069 o
118.48 359.065 o
118.48 359.061 o
118.48 359.057 o
118.48 359.053 o
118.48 359.049 o
118.48 359.045 o
118.48 359.041 o
118.48 359.036 o
118.48 359.032 o
118.48 359.028 o
118.48 359.024 o
118.48 359.02 o
118.481 359.016 o
118.481 359.012 o
118.481 359.008 o
118.481 359.004 o
118.481 358.999 o
118.481 358.995 o
118.481 358.991 o
118.481 358.987 o
118.481 358.983 o
118.481 358.978 o
118.481 358.974 o
118.481 358.97 o
118.481 358.966 o
118.481 358.962 o
118.481 358.957 o
118.481 358.953 o
118.481 358.949 o
118.481 358.945 o
118.481 358.94 o
118.481 358.936 o
118.481 358.932 o
118.481 358.927 o
118.481 358.923 o
118.481 358.919 o
118.481 358.914 o
118.481 358.91 o
118.482 358.906 o
118.482 358.901 o
118.482 358.897 o
118.482 358.893 o
118.482 358.888 o
118.482 358.884 o
118.482 358.879 o
118.482 358.875 o
118.482 358.871 o
118.482 358.866 o
118.482 358.862 o
118.482 358.857 o
118.482 358.853 o
118.482 358.848 o
118.482 358.844 o
118.482 358.839 o
118.482 358.835 o
118.482 358.83 o
118.482 358.826 o
118.482 358.821 o
118.482 358.817 o
118.482 358.812 o
118.482 358.808 o
118.482 358.803 o
118.482 358.799 o
118.482 358.794 o
118.482 358.79 o
118.482 358.785 o
118.482 358.781 o
118.483 358.776 o
118.483 358.771 o
118.483 358.767 o
118.483 358.762 o
118.483 358.758 o
118.483 358.753 o
118.483 358.748 o
118.483 358.744 o
118.483 358.739 o
118.483 358.734 o
118.483 358.73 o
118.483 358.725 o
118.483 358.72 o
118.483 358.716 o
118.483 358.711 o
118.483 358.706 o
118.483 358.702 o
118.483 358.697 o
118.483 358.692 o
118.483 358.687 o
118.483 358.683 o
118.483 358.678 o
118.483 358.673 o
118.483 358.669 o
118.483 358.664 o
118.483 358.659 o
118.483 358.654 o
118.483 358.649 o
118.483 358.645 o
118.483 358.64 o
118.483 358.635 o
118.483 358.63 o
118.484 358.625 o
118.484 358.621 o
118.484 358.616 o
118.484 358.611 o
118.484 358.606 o
118.484 358.601 o
118.484 358.596 o
118.484 358.592 o
118.484 358.587 o
118.484 358.582 o
118.484 358.577 o
118.484 358.572 o
118.484 358.567 o
118.484 358.562 o
118.484 358.557 o
118.484 358.553 o
118.484 358.548 o
118.484 358.543 o
118.484 358.538 o
118.484 358.533 o
118.484 358.528 o
118.484 358.523 o
118.484 358.518 o
118.484 358.513 o
118.484 358.508 o
118.484 358.503 o
118.484 358.498 o
118.484 358.493 o
118.484 358.488 o
118.484 358.483 o
118.484 358.478 o
118.484 358.473 o
118.484 358.468 o
118.484 358.463 o
118.484 358.458 o
118.484 358.453 o
118.484 358.448 o
118.484 358.443 o
118.484 358.438 o
118.484 358.433 o
118.485 358.428 o
118.485 358.423 o
118.485 358.418 o
118.485 358.413 o
118.485 358.408 o
118.485 358.403 o
118.485 358.398 o
118.485 358.393 o
118.485 358.388 o
118.485 358.383 o
118.485 358.377 o
118.485 358.372 o
118.485 358.367 o
118.485 358.362 o
118.485 358.357 o
118.485 358.352 o
118.485 358.347 o
118.485 358.342 o
118.485 358.337 o
118.485 358.331 o
118.485 358.326 o
118.485 358.321 o
118.485 358.316 o
118.485 358.311 o
118.485 358.306 o
118.485 358.301 o
118.485 358.295 o
118.485 358.29 o
118.485 358.285 o
118.485 358.28 o
118.485 358.275 o
118.485 358.269 o
118.485 358.264 o
118.485 358.259 o
118.485 358.254 o
118.485 358.249 o
118.485 358.243 o
118.485 358.238 o
118.485 358.233 o
118.485 358.228 o
118.485 358.223 o
118.485 358.217 o
118.485 358.212 o
118.485 358.207 o
118.485 358.202 o
118.485 358.196 o
118.485 358.191 o
118.485 358.186 o
118.485 358.181 o
118.485 358.176 o
118.485 358.17 o
118.485 358.165 o
118.485 358.16 o
118.485 358.154 o
118.485 358.149 o
118.486 358.144 o
118.486 358.139 o
118.486 358.133 o
118.486 358.128 o
118.486 358.123 o
118.486 358.118 o
118.486 358.112 o
118.486 358.107 o
118.486 358.102 o
118.486 358.096 o
118.486 358.091 o
118.486 358.086 o
118.486 358.08 o
118.486 358.075 o
118.486 358.07 o
118.486 358.065 o
118.486 358.059 o
118.486 358.054 o
118.486 358.049 o
118.486 358.043 o
118.486 358.038 o
118.486 358.033 o
118.486 358.027 o
118.486 358.022 o
118.486 358.017 o
118.486 358.011 o
118.486 358.006 o
118.486 358.001 o
118.486 357.995 o
118.486 357.99 o
118.486 357.985 o
118.486 357.979 o
118.486 357.974 o
118.486 357.969 o
118.486 357.963 o
118.486 357.958 o
118.486 357.952 o
118.486 357.947 o
118.486 357.942 o
118.486 357.936 o
118.486 357.931 o
118.486 357.926 o
118.486 357.92 o
118.486 357.915 o
118.486 357.909 o
118.486 357.904 o
118.486 357.899 o
118.486 357.893 o
118.486 357.888 o
118.486 357.883 o
118.486 357.877 o
118.486 357.872 o
118.486 357.866 o
118.486 357.861 o
118.486 357.856 o
118.486 357.85 o
118.486 357.845 o
118.486 357.84 o
118.486 357.834 o
118.486 357.829 o
118.486 357.823 o
118.486 357.818 o
118.486 357.813 o
118.486 357.807 o
118.486 357.802 o
118.486 357.796 o
118.486 357.791 o
118.486 357.786 o
118.486 357.78 o
118.486 357.775 o
118.486 357.769 o
118.486 357.764 o
118.486 357.759 o
118.486 357.753 o
118.486 357.748 o
118.486 357.742 o
118.486 357.737 o
118.486 357.732 o
118.486 357.726 o
118.486 357.721 o
118.486 357.715 o
118.486 357.71 o
118.486 357.705 o
118.486 357.699 o
118.486 357.694 o
118.486 357.688 o
118.486 357.683 o
118.486 357.678 o
118.486 357.672 o
118.486 357.667 o
118.486 357.661 o
118.486 357.656 o
118.486 357.651 o
118.486 357.645 o
118.486 357.64 o
118.486 357.634 o
118.486 357.629 o
118.486 357.624 o
118.486 357.618 o
118.486 357.613 o
118.486 357.607 o
118.486 357.602 o
118.486 357.597 o
118.486 357.591 o
118.486 357.586 o
118.486 357.58 o
118.486 357.575 o
118.486 357.57 o
118.486 357.564 o
118.486 357.559 o
118.486 357.554 o
118.486 357.548 o
118.486 357.543 o
118.486 357.537 o
118.486 357.532 o
118.486 357.527 o
118.486 357.521 o
118.486 357.516 o
118.486 357.51 o
118.486 357.505 o
118.486 357.5 o
118.486 357.494 o
118.486 357.489 o
118.486 357.484 o
118.486 357.478 o
118.486 357.473 o
118.486 357.467 o
118.486 357.462 o
118.486 357.457 o
118.486 357.451 o
118.486 357.446 o
118.486 357.441 o
118.486 357.435 o
118.486 357.43 o
118.486 357.425 o
118.486 357.419 o
118.486 357.414 o
118.486 357.409 o
118.486 357.403 o
118.486 357.398 o
118.486 357.393 o
118.486 357.387 o
118.486 357.382 o
118.486 357.377 o
118.486 357.371 o
118.486 357.366 o
118.486 357.361 o
118.486 357.355 o
118.486 357.35 o
118.486 357.345 o
118.486 357.339 o
118.486 357.334 o
118.486 357.329 o
118.486 357.323 o
118.486 357.318 o
118.486 357.313 o
118.486 357.307 o
118.486 357.302 o
118.486 357.297 o
118.486 357.292 o
118.486 357.286 o
118.486 357.281 o
118.486 357.276 o
118.486 357.27 o
118.486 357.265 o
118.486 357.26 o
118.485 357.255 o
118.485 357.249 o
118.485 357.244 o
118.485 357.239 o
118.485 357.233 o
118.485 357.228 o
118.485 357.223 o
118.485 357.218 o
118.485 357.212 o
118.485 357.207 o
118.485 357.202 o
118.485 357.197 o
118.485 357.192 o
118.485 357.186 o
118.485 357.181 o
118.485 357.176 o
118.485 357.171 o
118.485 357.165 o
118.485 357.16 o
118.485 357.155 o
118.485 357.15 o
118.485 357.145 o
118.485 357.139 o
118.485 357.134 o
118.485 357.129 o
118.485 357.124 o
118.485 357.119 o
118.485 357.114 o
118.485 357.108 o
118.485 357.103 o
118.485 357.098 o
118.485 357.093 o
118.485 357.088 o
118.485 357.083 o
118.485 357.077 o
118.485 357.072 o
118.485 357.067 o
118.485 357.062 o
118.485 357.057 o
118.485 357.052 o
118.485 357.047 o
118.485 357.042 o
118.485 357.036 o
118.485 357.031 o
118.485 357.026 o
118.485 357.021 o
118.485 357.016 o
118.485 357.011 o
118.485 357.006 o
118.485 357.001 o
118.485 356.996 o
118.485 356.991 o
118.485 356.986 o
118.485 356.981 o
118.485 356.975 o
118.485 356.97 o
118.484 356.965 o
118.484 356.96 o
118.484 356.955 o
118.484 356.95 o
118.484 356.945 o
118.484 356.94 o
118.484 356.935 o
118.484 356.93 o
118.484 356.925 o
118.484 356.92 o
118.484 356.915 o
118.484 356.91 o
118.484 356.905 o
118.484 356.9 o
118.484 356.895 o
118.484 356.89 o
118.484 356.885 o
118.484 356.881 o
118.484 356.876 o
118.484 356.871 o
118.484 356.866 o
118.484 356.861 o
118.484 356.856 o
118.484 356.851 o
118.484 356.846 o
118.484 356.841 o
118.484 356.836 o
118.484 356.831 o
118.484 356.826 o
118.484 356.822 o
118.484 356.817 o
118.484 356.812 o
118.484 356.807 o
118.484 356.802 o
118.484 356.797 o
118.484 356.792 o
118.484 356.788 o
118.484 356.783 o
118.484 356.778 o
118.483 356.773 o
118.483 356.768 o
118.483 356.764 o
118.483 356.759 o
118.483 356.754 o
118.483 356.749 o
118.483 356.744 o
118.483 356.74 o
118.483 356.735 o
118.483 356.73 o
118.483 356.725 o
118.483 356.721 o
118.483 356.716 o
118.483 356.711 o
118.483 356.706 o
118.483 356.702 o
118.483 356.697 o
118.483 356.692 o
118.483 356.688 o
118.483 356.683 o
118.483 356.678 o
118.483 356.674 o
118.483 356.669 o
118.483 356.664 o
118.483 356.66 o
118.483 356.655 o
118.483 356.65 o
118.483 356.646 o
118.483 356.641 o
118.483 356.637 o
118.483 356.632 o
118.483 356.627 o
118.483 356.623 o
118.482 356.618 o
118.482 356.614 o
118.482 356.609 o
118.482 356.604 o
118.482 356.6 o
118.482 356.595 o
118.482 356.591 o
118.482 356.586 o
118.482 356.582 o
118.482 356.577 o
118.482 356.573 o
118.482 356.568 o
118.482 356.564 o
118.482 356.559 o
118.482 356.555 o
118.482 356.55 o
118.482 356.546 o
118.482 356.541 o
118.482 356.537 o
118.482 356.533 o
118.482 356.528 o
118.482 356.524 o
118.482 356.519 o
118.482 356.515 o
118.482 356.511 o
118.482 356.506 o
118.482 356.502 o
118.482 356.497 o
118.481 356.493 o
118.481 356.489 o
118.481 356.484 o
118.481 356.48 o
118.481 356.476 o
118.481 356.471 o
118.481 356.467 o
118.481 356.463 o
118.481 356.459 o
118.481 356.454 o
118.481 356.45 o
118.481 356.446 o
118.481 356.442 o
118.481 356.437 o
118.481 356.433 o
118.481 356.429 o
118.481 356.425 o
118.481 356.42 o
118.481 356.416 o
118.481 356.412 o
118.481 356.408 o
118.481 356.404 o
118.481 356.399 o
118.481 356.395 o
118.481 356.391 o
118.481 356.387 o
118.48 356.383 o
118.48 356.379 o
118.48 356.375 o
118.48 356.371 o
118.48 356.367 o
118.48 356.362 o
118.48 356.358 o
118.48 356.354 o
118.48 356.35 o
118.48 356.346 o
118.48 356.342 o
118.48 356.338 o
118.48 356.334 o
118.48 356.33 o
118.48 356.326 o
118.48 356.322 o
118.48 356.318 o
118.48 356.314 o
118.48 356.31 o
118.48 356.306 o
118.48 356.302 o
118.48 356.298 o
118.48 356.295 o
118.48 356.291 o
118.479 356.287 o
118.479 356.283 o
118.479 356.279 o
118.479 356.275 o
118.479 356.271 o
118.479 356.267 o
118.479 356.264 o
118.479 356.26 o
118.479 356.256 o
118.479 356.252 o
118.479 356.248 o
118.479 356.245 o
118.479 356.241 o
118.479 356.237 o
118.479 356.233 o
118.479 356.23 o
118.479 356.226 o
118.479 356.222 o
118.479 356.218 o
118.479 356.215 o
118.479 356.211 o
118.479 356.207 o
118.478 356.204 o
118.478 356.2 o
118.478 356.196 o
118.478 356.193 o
118.478 356.189 o
118.478 356.185 o
118.478 356.182 o
118.478 356.178 o
118.478 356.175 o
118.478 356.171 o
118.478 356.167 o
118.478 356.164 o
118.478 356.16 o
118.478 356.157 o
118.478 356.153 o
118.478 356.15 o
118.478 356.146 o
118.478 356.143 o
118.478 356.139 o
118.478 356.136 o
118.478 356.132 o
118.478 356.129 o
118.477 356.126 o
118.477 356.122 o
118.477 356.119 o
118.477 356.115 o
118.477 356.112 o
118.477 356.109 o
118.477 356.105 o
118.477 356.102 o
118.477 356.098 o
118.477 356.095 o
118.477 356.092 o
118.477 356.089 o
118.477 356.085 o
118.477 356.082 o
118.477 356.079 o
118.477 356.075 o
118.477 356.072 o
118.477 356.069 o
118.477 356.066 o
118.477 356.062 o
118.476 356.059 o
118.476 356.056 o
118.476 356.053 o
118.476 356.05 o
118.476 356.047 o
118.476 356.043 o
118.476 356.04 o
118.476 356.037 o
118.476 356.034 o
118.476 356.031 o
118.476 356.028 o
118.476 356.025 o
118.476 356.022 o
118.476 356.019 o
118.476 356.016 o
118.476 356.013 o
118.476 356.009 o
118.476 356.006 o
118.476 356.003 o
118.475 356.001 o
118.475 355.998 o
118.475 355.995 o
118.475 355.992 o
118.475 355.989 o
118.475 355.986 o
118.475 355.983 o
118.475 355.98 o
118.475 355.977 o
118.475 355.974 o
118.475 355.971 o
118.475 355.968 o
118.475 355.966 o
118.475 355.963 o
118.475 355.96 o
118.475 355.957 o
118.475 355.954 o
118.475 355.952 o
118.475 355.949 o
118.474 355.946 o
118.474 355.943 o
118.474 355.941 o
118.474 355.938 o
118.474 355.935 o
118.474 355.932 o
118.474 355.93 o
118.474 355.927 o
118.474 355.924 o
118.474 355.922 o
118.474 355.919 o
118.474 355.917 o
118.474 355.914 o
118.474 355.911 o
118.474 355.909 o
118.474 355.906 o
118.474 355.904 o
grestore
0.000 0.000 1.000 setrgbcolor
gsave
453.4 352.8 73.12 44.1 clipbox
/o {
gsave
newpath
translate
-3 -3 m
3 3 l
-3 3 m
3 -3 l
stroke
grestore
} bind def
118.466 357.702 o
118.465 357.701 o
118.462 357.7 o
432.207 100.081 o
494.945 48.5657 o
494.945 48.5657 o
494.945 48.5657 o
494.945 48.5657 o
494.945 48.5657 o
494.945 48.5657 o
494.945 48.5657 o
494.945 48.5657 o
494.945 48.5657 o
494.945 48.5657 o
494.945 48.5657 o
494.945 48.5657 o
494.945 48.5657 o
494.945 48.5657 o
494.945 48.5657 o
494.945 48.5657 o
494.945 48.5657 o
494.945 48.5657 o
494.945 48.5657 o
494.945 48.5657 o
494.945 48.5657 o
494.945 48.5657 o
494.945 48.5657 o
494.945 48.5657 o
494.945 48.5657 o
494.945 48.5657 o
494.945 48.5657 o
494.945 48.5657 o
494.945 48.5657 o
494.945 48.5657 o
494.945 48.5657 o
494.945 48.5657 o
494.945 48.5657 o
494.945 48.5657 o
494.945 48.5657 o
494.945 48.5657 o
494.945 48.5657 o
494.945 48.5657 o
494.945 48.5657 o
494.945 48.5657 o
494.945 48.5657 o
494.945 48.5657 o
494.945 48.5657 o
494.945 48.5657 o
494.945 48.5657 o
494.945 48.5657 o
494.945 48.5657 o
494.945 48.5657 o
494.945 48.5657 o
494.945 48.5657 o
494.945 48.5657 o
494.945 48.5657 o
494.945 48.5657 o
494.945 48.5657 o
494.945 48.5657 o
494.945 48.5657 o
494.945 48.5657 o
494.945 48.5657 o
494.945 48.5657 o
494.945 48.5657 o
494.945 48.5657 o
494.945 48.5657 o
494.945 48.5657 o
494.945 48.5657 o
494.945 48.5657 o
494.945 48.5657 o
494.945 48.5657 o
494.945 48.5657 o
494.945 48.5657 o
494.945 48.5657 o
494.945 48.5657 o
494.945 48.5657 o
494.945 48.5657 o
494.945 48.5657 o
494.945 48.5657 o
494.945 48.5657 o
494.945 48.5657 o
494.945 48.5657 o
494.945 48.5657 o
494.945 48.5657 o
494.945 48.5657 o
494.945 48.5657 o
494.945 48.5657 o
494.945 48.5657 o
494.945 48.5657 o
494.945 48.5657 o
494.945 48.5657 o
494.945 48.5657 o
494.945 48.5657 o
494.945 48.5657 o
494.945 48.5657 o
494.945 48.5657 o
494.945 48.5657 o
494.945 48.5657 o
494.945 48.5657 o
494.945 48.5657 o
494.945 48.5657 o
494.945 48.5657 o
494.945 48.5657 o
494.945 48.5657 o
494.945 48.5657 o
494.945 48.5657 o
494.945 48.5657 o
494.945 48.5657 o
494.945 48.5657 o
494.945 48.5657 o
494.945 48.5657 o
494.945 48.5657 o
494.945 48.5657 o
494.945 48.5657 o
494.945 48.5657 o
494.945 48.5657 o
494.945 48.5657 o
494.945 48.5657 o
494.945 48.5657 o
494.945 48.5657 o
494.945 48.5657 o
494.945 48.5657 o
494.945 48.5657 o
494.945 48.5657 o
494.945 48.5657 o
494.945 48.5657 o
494.945 48.5657 o
494.945 48.5657 o
494.945 48.5657 o
494.945 48.5657 o
494.945 48.5657 o
494.945 48.5657 o
494.945 48.5657 o
494.945 48.5657 o
494.945 48.5657 o
494.945 48.5657 o
494.945 48.5657 o
494.945 48.5657 o
494.945 48.5657 o
494.945 48.5657 o
494.945 48.5657 o
494.945 48.5657 o
494.945 48.5657 o
494.945 48.5657 o
494.945 48.5657 o
494.945 48.5657 o
494.945 48.5657 o
494.945 48.5657 o
494.945 48.5657 o
494.945 48.5657 o
494.945 48.5657 o
494.945 48.5657 o
494.945 48.5657 o
494.945 48.5657 o
494.945 48.5657 o
494.945 48.5657 o
494.945 48.5657 o
494.945 48.5657 o
494.945 48.5657 o
494.945 48.5657 o
494.945 48.5657 o
494.945 48.5657 o
494.945 48.5657 o
494.945 48.5657 o
494.945 48.5657 o
494.945 48.5657 o
494.945 48.5657 o
494.945 48.5657 o
494.945 48.5657 o
494.945 48.5657 o
494.945 48.5657 o
494.945 48.5657 o
494.945 48.5657 o
494.945 48.5657 o
494.945 48.5657 o
494.945 48.5657 o
494.945 48.5657 o
494.945 48.5657 o
494.945 48.5657 o
494.945 48.5657 o
494.945 48.5657 o
494.945 48.5657 o
494.945 48.5657 o
494.945 48.5657 o
494.945 48.5657 o
494.945 48.5657 o
494.945 48.5657 o
494.945 48.5657 o
494.945 48.5657 o
494.945 48.5657 o
494.945 48.5657 o
494.945 48.5657 o
494.945 48.5657 o
494.945 48.5657 o
494.945 48.5657 o
494.945 48.5657 o
494.945 48.5657 o
494.945 48.5657 o
494.945 48.5657 o
494.945 48.5657 o
494.945 48.5657 o
494.945 48.5657 o
494.945 48.5657 o
494.945 48.5657 o
494.945 48.5657 o
494.945 48.5657 o
494.945 48.5657 o
494.945 48.5657 o
494.945 48.5657 o
494.945 48.5657 o
494.945 48.5657 o
494.945 48.5657 o
494.945 48.5657 o
494.945 48.5657 o
494.945 48.5657 o
494.945 48.5657 o
494.945 48.5657 o
494.945 48.5657 o
494.945 48.5657 o
494.945 48.5657 o
494.945 48.5657 o
494.945 48.5657 o
494.945 48.5657 o
494.945 48.5657 o
494.945 48.5657 o
494.945 48.5657 o
494.945 48.5657 o
494.945 48.5657 o
494.945 48.5657 o
494.945 48.5657 o
494.945 48.5657 o
494.945 48.5657 o
494.945 48.5657 o
494.945 48.5657 o
494.945 48.5657 o
494.945 48.5657 o
494.945 48.5657 o
494.945 48.5657 o
494.945 48.5657 o
494.945 48.5657 o
494.945 48.5657 o
494.945 48.5657 o
494.945 48.5657 o
494.945 48.5657 o
494.945 48.5657 o
494.945 48.5657 o
494.945 48.5657 o
494.945 48.5657 o
494.945 48.5657 o
494.945 48.5657 o
494.945 48.5657 o
494.945 48.5657 o
494.945 48.5657 o
494.945 48.5657 o
494.945 48.5657 o
494.945 48.5657 o
494.945 48.5657 o
494.945 48.5657 o
494.945 48.5657 o
494.945 48.5657 o
494.945 48.5657 o
494.945 48.5657 o
494.945 48.5657 o
494.945 48.5657 o
494.945 48.5657 o
494.945 48.5657 o
494.945 48.5657 o
494.945 48.5657 o
494.945 48.5657 o
494.945 48.5657 o
494.945 48.5657 o
494.945 48.5657 o
494.945 48.5657 o
494.945 48.5657 o
494.945 48.5657 o
494.945 48.5657 o
494.945 48.5657 o
494.945 48.5657 o
494.945 48.5657 o
494.945 48.5657 o
494.945 48.5657 o
494.945 48.5657 o
494.945 48.5657 o
494.945 48.5657 o
494.945 48.5657 o
494.945 48.5657 o
494.945 48.5657 o
494.945 48.5657 o
494.945 48.5657 o
494.945 48.5657 o
494.945 48.5657 o
494.945 48.5657 o
494.945 48.5657 o
494.945 48.5657 o
494.945 48.5657 o
494.945 48.5657 o
494.945 48.5657 o
494.945 48.5657 o
494.945 48.5657 o
494.945 48.5657 o
494.945 48.5657 o
494.945 48.5657 o
494.945 48.5657 o
494.945 48.5657 o
494.945 48.5657 o
494.945 48.5657 o
494.945 48.5657 o
494.945 48.5657 o
494.945 48.5657 o
494.945 48.5657 o
494.945 48.5657 o
494.945 48.5657 o
494.945 48.5657 o
494.945 48.5657 o
494.945 48.5657 o
494.945 48.5657 o
494.945 48.5657 o
494.945 48.5657 o
494.945 48.5657 o
494.945 48.5657 o
494.945 48.5657 o
494.945 48.5657 o
494.945 48.5657 o
494.945 48.5657 o
494.945 48.5657 o
494.945 48.5657 o
494.945 48.5657 o
494.945 48.5657 o
494.945 48.5657 o
494.945 48.5657 o
494.945 48.5657 o
494.945 48.5657 o
494.945 48.5657 o
494.945 48.5657 o
494.945 48.5657 o
494.945 48.5657 o
494.945 48.5657 o
494.945 48.5657 o
494.945 48.5657 o
494.945 48.5657 o
494.945 48.5657 o
494.945 48.5657 o
494.945 48.5657 o
494.945 48.5657 o
494.945 48.5657 o
494.945 48.5657 o
494.945 48.5657 o
494.945 48.5657 o
494.945 48.5657 o
494.945 48.5657 o
494.945 48.5657 o
494.945 48.5657 o
494.945 48.5657 o
494.945 48.5657 o
494.945 48.5657 o
494.945 48.5657 o
494.945 48.5657 o
494.945 48.5657 o
494.945 48.5657 o
494.945 48.5657 o
494.945 48.5657 o
494.945 48.5657 o
494.945 48.5657 o
494.945 48.5657 o
494.945 48.5657 o
494.945 48.5657 o
494.945 48.5657 o
494.945 48.5657 o
494.945 48.5657 o
494.945 48.5657 o
494.945 48.5657 o
494.945 48.5657 o
494.945 48.5657 o
494.945 48.5657 o
494.945 48.5657 o
494.945 48.5657 o
494.945 48.5657 o
494.945 48.5657 o
494.945 48.5657 o
494.945 48.5657 o
494.945 48.5657 o
494.945 48.5657 o
494.945 48.5657 o
494.945 48.5657 o
494.945 48.5657 o
494.945 48.5657 o
494.945 48.5657 o
494.945 48.5657 o
494.945 48.5657 o
494.945 48.5657 o
494.945 48.5657 o
494.945 48.5657 o
494.945 48.5657 o
494.945 48.5657 o
494.945 48.5657 o
494.945 48.5657 o
494.945 48.5657 o
494.945 48.5657 o
494.945 48.5657 o
494.945 48.5657 o
494.945 48.5657 o
494.945 48.5657 o
494.945 48.5657 o
494.945 48.5657 o
494.945 48.5657 o
494.945 48.5657 o
494.945 48.5657 o
494.945 48.5657 o
494.945 48.5657 o
494.945 48.5657 o
494.945 48.5657 o
494.945 48.5657 o
494.945 48.5657 o
494.945 48.5657 o
494.945 48.5657 o
494.945 48.5657 o
494.945 48.5657 o
494.945 48.5657 o
494.945 48.5657 o
494.945 48.5657 o
494.945 48.5657 o
494.945 48.5657 o
494.945 48.5657 o
494.945 48.5657 o
494.945 48.5657 o
494.945 48.5657 o
494.945 48.5657 o
494.945 48.5657 o
494.945 48.5657 o
494.945 48.5657 o
494.945 48.5657 o
494.945 48.5657 o
494.945 48.5657 o
494.945 48.5657 o
494.945 48.5657 o
494.945 48.5657 o
494.945 48.5657 o
494.945 48.5657 o
494.945 48.5657 o
494.945 48.5657 o
494.945 48.5657 o
494.945 48.5657 o
494.945 48.5657 o
494.945 48.5657 o
494.945 48.5657 o
494.945 48.5657 o
494.945 48.5657 o
494.945 48.5657 o
494.945 48.5657 o
494.945 48.5657 o
494.945 48.5657 o
494.945 48.5657 o
494.945 48.5657 o
494.945 48.5657 o
494.945 48.5657 o
494.945 48.5657 o
494.945 48.5657 o
494.945 48.5657 o
494.945 48.5657 o
494.945 48.5657 o
494.945 48.5657 o
494.945 48.5657 o
494.945 48.5657 o
494.945 48.5657 o
494.945 48.5657 o
494.945 48.5657 o
494.945 48.5657 o
494.945 48.5657 o
494.945 48.5657 o
494.945 48.5657 o
494.945 48.5657 o
494.945 48.5657 o
494.945 48.5657 o
494.945 48.5657 o
494.945 48.5657 o
494.945 48.5657 o
494.945 48.5657 o
494.945 48.5657 o
494.945 48.5657 o
494.945 48.5657 o
494.945 48.5657 o
494.945 48.5657 o
494.945 48.5657 o
494.945 48.5657 o
494.945 48.5657 o
494.945 48.5657 o
494.945 48.5657 o
494.945 48.5657 o
494.945 48.5657 o
494.945 48.5657 o
494.945 48.5657 o
494.945 48.5657 o
494.945 48.5657 o
494.945 48.5657 o
494.945 48.5657 o
494.945 48.5657 o
494.945 48.5657 o
494.945 48.5657 o
494.945 48.5657 o
494.945 48.5657 o
494.945 48.5657 o
494.945 48.5657 o
494.945 48.5657 o
494.945 48.5657 o
494.945 48.5657 o
494.945 48.5657 o
494.945 48.5657 o
494.945 48.5657 o
494.945 48.5657 o
494.945 48.5657 o
494.945 48.5657 o
494.945 48.5657 o
494.945 48.5657 o
494.945 48.5657 o
494.945 48.5657 o
494.945 48.5657 o
494.945 48.5657 o
494.945 48.5657 o
494.945 48.5657 o
494.945 48.5657 o
494.945 48.5657 o
494.945 48.5657 o
494.945 48.5657 o
494.945 48.5657 o
494.945 48.5657 o
494.945 48.5657 o
494.945 48.5657 o
494.945 48.5657 o
494.945 48.5657 o
494.945 48.5657 o
494.945 48.5657 o
494.945 48.5657 o
494.945 48.5657 o
494.945 48.5657 o
494.945 48.5657 o
494.945 48.5657 o
494.945 48.5657 o
494.945 48.5657 o
494.945 48.5657 o
494.945 48.5657 o
494.945 48.5657 o
494.945 48.5657 o
494.945 48.5657 o
494.945 48.5657 o
494.945 48.5657 o
494.945 48.5657 o
494.945 48.5657 o
494.945 48.5657 o
494.945 48.5657 o
494.945 48.5657 o
494.945 48.5657 o
494.945 48.5657 o
494.945 48.5657 o
494.945 48.5657 o
494.945 48.5657 o
494.945 48.5657 o
494.945 48.5657 o
494.945 48.5657 o
494.945 48.5657 o
494.945 48.5657 o
494.945 48.5657 o
494.945 48.5657 o
494.945 48.5657 o
494.945 48.5657 o
494.945 48.5657 o
494.945 48.5657 o
494.945 48.5657 o
494.945 48.5657 o
494.945 48.5657 o
494.945 48.5657 o
494.945 48.5657 o
494.945 48.5657 o
494.945 48.5657 o
494.945 48.5657 o
494.945 48.5657 o
494.945 48.5657 o
494.945 48.5657 o
494.945 48.5657 o
494.945 48.5657 o
494.945 48.5657 o
494.945 48.5657 o
494.945 48.5657 o
494.945 48.5657 o
494.945 48.5657 o
494.945 48.5657 o
494.945 48.5657 o
494.945 48.5657 o
494.945 48.5657 o
494.945 48.5657 o
494.945 48.5657 o
494.945 48.5657 o
494.945 48.5657 o
494.945 48.5657 o
494.945 48.5657 o
494.945 48.5657 o
494.945 48.5657 o
494.945 48.5657 o
494.945 48.5657 o
494.945 48.5657 o
494.945 48.5657 o
494.945 48.5657 o
494.945 48.5657 o
494.945 48.5657 o
494.945 48.5657 o
494.945 48.5657 o
494.945 48.5657 o
494.945 48.5657 o
494.945 48.5657 o
494.945 48.5657 o
494.945 48.5657 o
494.945 48.5657 o
494.945 48.5657 o
494.945 48.5657 o
494.945 48.5657 o
494.945 48.5657 o
494.945 48.5657 o
494.945 48.5657 o
494.945 48.5657 o
494.945 48.5657 o
494.945 48.5657 o
494.945 48.5657 o
494.945 48.5657 o
494.945 48.5657 o
494.945 48.5657 o
494.945 48.5657 o
494.945 48.5657 o
494.945 48.5657 o
494.945 48.5657 o
494.945 48.5657 o
494.945 48.5657 o
494.945 48.5657 o
494.945 48.5657 o
494.945 48.5657 o
494.945 48.5657 o
494.945 48.5657 o
494.945 48.5657 o
494.945 48.5657 o
494.945 48.5657 o
494.945 48.5657 o
494.945 48.5657 o
494.945 48.5657 o
494.945 48.5657 o
494.945 48.5657 o
494.945 48.5657 o
494.945 48.5657 o
494.945 48.5657 o
494.945 48.5657 o
494.945 48.5657 o
494.945 48.5657 o
494.945 48.5657 o
494.945 48.5657 o
494.945 48.5657 o
494.945 48.5657 o
494.945 48.5657 o
494.945 48.5657 o
494.945 48.5657 o
494.945 48.5657 o
494.945 48.5657 o
494.945 48.5657 o
494.945 48.5657 o
494.945 48.5657 o
494.945 48.5657 o
494.945 48.5657 o
494.945 48.5657 o
494.945 48.5657 o
494.945 48.5657 o
494.945 48.5657 o
494.945 48.5657 o
494.945 48.5657 o
494.945 48.5657 o
494.945 48.5657 o
494.945 48.5657 o
494.945 48.5657 o
494.945 48.5657 o
494.945 48.5657 o
494.945 48.5657 o
494.945 48.5657 o
494.945 48.5657 o
494.945 48.5657 o
494.945 48.5657 o
494.945 48.5657 o
494.945 48.5657 o
494.945 48.5657 o
494.945 48.5657 o
494.945 48.5657 o
494.945 48.5657 o
494.945 48.5657 o
494.945 48.5657 o
494.945 48.5657 o
494.945 48.5657 o
494.945 48.5657 o
494.945 48.5657 o
494.945 48.5657 o
494.945 48.5657 o
494.945 48.5657 o
494.945 48.5657 o
494.945 48.5657 o
494.945 48.5657 o
494.945 48.5657 o
494.945 48.5657 o
494.945 48.5657 o
494.945 48.5657 o
494.945 48.5657 o
494.945 48.5657 o
494.945 48.5657 o
494.945 48.5657 o
494.945 48.5657 o
494.945 48.5657 o
494.945 48.5657 o
494.945 48.5657 o
494.945 48.5657 o
494.945 48.5657 o
494.945 48.5657 o
494.945 48.5657 o
494.945 48.5657 o
494.945 48.5657 o
494.945 48.5657 o
494.945 48.5657 o
494.945 48.5657 o
494.945 48.5657 o
494.945 48.5657 o
494.945 48.5657 o
494.945 48.5657 o
494.945 48.5657 o
494.945 48.5657 o
494.945 48.5657 o
494.945 48.5657 o
494.945 48.5657 o
494.945 48.5657 o
494.945 48.5657 o
494.945 48.5657 o
494.945 48.5657 o
494.945 48.5657 o
494.945 48.5657 o
494.945 48.5657 o
494.945 48.5657 o
494.945 48.5657 o
494.945 48.5657 o
494.945 48.5657 o
494.945 48.5657 o
494.945 48.5657 o
494.945 48.5657 o
494.945 48.5657 o
494.945 48.5657 o
494.945 48.5657 o
494.945 48.5657 o
494.945 48.5657 o
494.945 48.5657 o
494.945 48.5657 o
494.945 48.5657 o
494.945 48.5657 o
494.945 48.5657 o
494.945 48.5657 o
494.945 48.5657 o
494.945 48.5657 o
494.945 48.5657 o
494.945 48.5657 o
494.945 48.5657 o
494.945 48.5657 o
494.945 48.5657 o
494.945 48.5657 o
494.945 48.5657 o
494.945 48.5657 o
494.945 48.5657 o
494.945 48.5657 o
494.945 48.5657 o
494.945 48.5657 o
494.945 48.5657 o
494.945 48.5657 o
494.945 48.5657 o
494.945 48.5657 o
494.945 48.5657 o
494.945 48.5657 o
494.945 48.5657 o
494.945 48.5657 o
494.945 48.5657 o
494.945 48.5657 o
494.945 48.5657 o
494.945 48.5657 o
494.945 48.5657 o
494.945 48.5657 o
494.945 48.5657 o
494.945 48.5657 o
494.945 48.5657 o
494.945 48.5657 o
494.945 48.5657 o
494.945 48.5657 o
494.945 48.5657 o
494.945 48.5657 o
494.945 48.5657 o
494.945 48.5657 o
494.945 48.5657 o
494.945 48.5657 o
494.945 48.5657 o
494.945 48.5657 o
494.945 48.5657 o
494.945 48.5657 o
494.945 48.5657 o
494.945 48.5657 o
494.945 48.5657 o
494.945 48.5657 o
494.945 48.5657 o
494.945 48.5657 o
494.945 48.5657 o
494.945 48.5657 o
494.945 48.5657 o
494.945 48.5657 o
494.945 48.5657 o
494.945 48.5657 o
494.945 48.5657 o
494.945 48.5657 o
494.945 48.5657 o
494.945 48.5657 o
494.945 48.5657 o
494.945 48.5657 o
494.945 48.5657 o
494.945 48.5657 o
494.945 48.5657 o
494.945 48.5657 o
494.945 48.5657 o
494.945 48.5657 o
494.945 48.5657 o
494.945 48.5657 o
494.945 48.5657 o
494.945 48.5657 o
494.945 48.5657 o
494.945 48.5657 o
494.945 48.5657 o
494.945 48.5657 o
494.945 48.5657 o
494.945 48.5657 o
494.945 48.5657 o
494.945 48.5657 o
494.945 48.5657 o
494.945 48.5657 o
494.945 48.5657 o
494.945 48.5657 o
494.945 48.5657 o
494.945 48.5657 o
494.945 48.5657 o
494.945 48.5657 o
494.945 48.5657 o
494.945 48.5657 o
494.945 48.5657 o
494.945 48.5657 o
494.945 48.5657 o
494.945 48.5657 o
494.945 48.5657 o
494.945 48.5657 o
494.945 48.5657 o
494.945 48.5657 o
494.945 48.5657 o
494.945 48.5657 o
494.945 48.5657 o
494.945 48.5657 o
494.945 48.5657 o
494.945 48.5657 o
494.945 48.5657 o
494.945 48.5657 o
494.945 48.5657 o
494.945 48.5657 o
494.945 48.5657 o
494.945 48.5657 o
494.945 48.5657 o
494.945 48.5657 o
494.945 48.5657 o
494.945 48.5657 o
494.945 48.5657 o
494.945 48.5657 o
494.945 48.5657 o
494.945 48.5657 o
494.945 48.5657 o
494.945 48.5657 o
494.945 48.5657 o
494.945 48.5657 o
494.945 48.5657 o
494.945 48.5657 o
494.945 48.5657 o
494.945 48.5657 o
494.945 48.5657 o
494.945 48.5657 o
494.945 48.5657 o
494.945 48.5657 o
494.945 48.5657 o
494.945 48.5657 o
494.945 48.5657 o
494.945 48.5657 o
494.945 48.5657 o
494.945 48.5657 o
494.945 48.5657 o
494.945 48.5657 o
494.945 48.5657 o
494.945 48.5657 o
494.945 48.5657 o
494.945 48.5657 o
494.945 48.5657 o
494.945 48.5657 o
494.945 48.5657 o
494.945 48.5657 o
494.945 48.5657 o
494.945 48.5657 o
494.945 48.5657 o
494.945 48.5657 o
494.945 48.5657 o
494.945 48.5657 o
494.945 48.5657 o
494.945 48.5657 o
494.945 48.5657 o
494.945 48.5657 o
494.945 48.5657 o
494.945 48.5657 o
494.945 48.5657 o
494.945 48.5657 o
494.945 48.5657 o
494.945 48.5657 o
494.945 48.5657 o
494.945 48.5657 o
494.945 48.5657 o
494.945 48.5657 o
494.945 48.5657 o
494.945 48.5657 o
494.945 48.5657 o
494.945 48.5657 o
494.945 48.5657 o
494.945 48.5657 o
494.945 48.5657 o
494.945 48.5657 o
494.945 48.5657 o
494.945 48.5657 o
494.945 48.5657 o
494.945 48.5657 o
494.945 48.5657 o
494.945 48.5657 o
494.945 48.5657 o
494.945 48.5657 o
494.945 48.5657 o
494.945 48.5657 o
494.945 48.5657 o
494.945 48.5657 o
494.945 48.5657 o
494.945 48.5657 o
494.945 48.5657 o
494.945 48.5657 o
494.945 48.5657 o
494.945 48.5657 o
494.945 48.5657 o
494.945 48.5657 o
494.945 48.5657 o
494.945 48.5657 o
494.945 48.5657 o
494.945 48.5657 o
494.945 48.5657 o
494.945 48.5657 o
494.945 48.5657 o
494.945 48.5657 o
494.945 48.5657 o
494.945 48.5657 o
494.945 48.5657 o
494.945 48.5657 o
494.945 48.5657 o
494.945 48.5657 o
494.945 48.5657 o
494.945 48.5657 o
494.945 48.5657 o
494.945 48.5657 o
494.945 48.5657 o
494.945 48.5657 o
494.945 48.5657 o
494.945 48.5657 o
494.945 48.5657 o
494.945 48.5657 o
494.945 48.5657 o
494.945 48.5657 o
494.945 48.5657 o
494.945 48.5657 o
494.945 48.5657 o
494.945 48.5657 o
494.945 48.5657 o
494.945 48.5657 o
494.945 48.5657 o
494.945 48.5657 o
494.945 48.5657 o
494.945 48.5657 o
494.945 48.5657 o
494.945 48.5657 o
494.945 48.5657 o
494.945 48.5657 o
494.945 48.5657 o
494.945 48.5657 o
494.945 48.5657 o
494.945 48.5657 o
494.945 48.5657 o
494.945 48.5657 o
494.945 48.5657 o
494.945 48.5657 o
494.945 48.5657 o
494.945 48.5657 o
494.945 48.5657 o
494.945 48.5657 o
494.945 48.5657 o
grestore
0.000 setgray
gsave
/o {
gsave
newpath
translate
0 0 m
0 4 l
stroke
grestore
} bind def
118.463 44.1 o
grestore
gsave
/o {
gsave
newpath
translate
0 0 m
0 -4 l
stroke
grestore
} bind def
118.463 396.9 o
grestore
/DejaVuSans findfont
12.000 scalefont
setfont
gsave
115.439063 31.021875 translate
0.000000 rotate
0.000000 0.171875 m /zero glyphshow
grestore
gsave
/o {
gsave
newpath
translate
0 0 m
0 4 l
stroke
grestore
} bind def
209.138 44.1 o
grestore
gsave
/o {
gsave
newpath
translate
0 0 m
0 -4 l
stroke
grestore
} bind def
209.138 396.9 o
grestore
gsave
190.871875 31.021875 translate
0.000000 rotate
0.000000 0.171875 m /two glyphshow
7.634766 0.171875 m /zero glyphshow
15.269531 0.171875 m /zero glyphshow
22.904297 0.171875 m /zero glyphshow
30.539062 0.171875 m /zero glyphshow
grestore
gsave
/o {
gsave
newpath
translate
0 0 m
0 4 l
stroke
grestore
} bind def
299.812 44.1 o
grestore
gsave
/o {
gsave
newpath
translate
0 0 m
0 -4 l
stroke
grestore
} bind def
299.812 396.9 o
grestore
gsave
281.406250 31.021875 translate
0.000000 rotate
0.000000 0.171875 m /four glyphshow
7.634766 0.171875 m /zero glyphshow
15.269531 0.171875 m /zero glyphshow
22.904297 0.171875 m /zero glyphshow
30.539062 0.171875 m /zero glyphshow
grestore
gsave
/o {
gsave
newpath
translate
0 0 m
0 4 l
stroke
grestore
} bind def
390.488 44.1 o
grestore
gsave
/o {
gsave
newpath
translate
0 0 m
0 -4 l
stroke
grestore
} bind def
390.488 396.9 o
grestore
gsave
372.206250 31.021875 translate
0.000000 rotate
0.000000 0.171875 m /six glyphshow
7.634766 0.171875 m /zero glyphshow
15.269531 0.171875 m /zero glyphshow
22.904297 0.171875 m /zero glyphshow
30.539062 0.171875 m /zero glyphshow
grestore
gsave
/o {
gsave
newpath
translate
0 0 m
0 4 l
stroke
grestore
} bind def
481.163 44.1 o
grestore
gsave
/o {
gsave
newpath
translate
0 0 m
0 -4 l
stroke
grestore
} bind def
481.163 396.9 o
grestore
gsave
462.865625 31.021875 translate
0.000000 rotate
0.000000 0.171875 m /eight glyphshow
7.634766 0.171875 m /zero glyphshow
15.269531 0.171875 m /zero glyphshow
22.904297 0.171875 m /zero glyphshow
30.539062 0.171875 m /zero glyphshow
grestore
gsave
/o {
gsave
newpath
translate
0 0 m
4 0 l
stroke
grestore
} bind def
73.125 44.1 o
grestore
gsave
/o {
gsave
newpath
translate
0 0 m
-4 0 l
stroke
grestore
} bind def
526.5 44.1 o
grestore
gsave
38.203125 39.560937 translate
0.000000 rotate
0.000000 0.171875 m /minus glyphshow
10.054688 0.171875 m /eight glyphshow
17.689453 0.171875 m /zero glyphshow
25.324219 0.171875 m /zero glyphshow
grestore
gsave
/o {
gsave
newpath
translate
0 0 m
4 0 l
stroke
grestore
} bind def
73.125 83.3 o
grestore
gsave
/o {
gsave
newpath
translate
0 0 m
-4 0 l
stroke
grestore
} bind def
526.5 83.3 o
grestore
gsave
38.203125 78.760938 translate
0.000000 rotate
0.000000 0.171875 m /minus glyphshow
10.054688 0.171875 m /seven glyphshow
17.689453 0.171875 m /zero glyphshow
25.324219 0.171875 m /zero glyphshow
grestore
gsave
/o {
gsave
newpath
translate
0 0 m
4 0 l
stroke
grestore
} bind def
73.125 122.5 o
grestore
gsave
/o {
gsave
newpath
translate
0 0 m
-4 0 l
stroke
grestore
} bind def
526.5 122.5 o
grestore
gsave
38.203125 117.960938 translate
0.000000 rotate
0.000000 0.171875 m /minus glyphshow
10.054688 0.171875 m /six glyphshow
17.689453 0.171875 m /zero glyphshow
25.324219 0.171875 m /zero glyphshow
grestore
gsave
/o {
gsave
newpath
translate
0 0 m
4 0 l
stroke
grestore
} bind def
73.125 161.7 o
grestore
gsave
/o {
gsave
newpath
translate
0 0 m
-4 0 l
stroke
grestore
} bind def
526.5 161.7 o
grestore
gsave
38.203125 157.160938 translate
0.000000 rotate
0.000000 0.171875 m /minus glyphshow
10.054688 0.171875 m /five glyphshow
17.689453 0.171875 m /zero glyphshow
25.324219 0.171875 m /zero glyphshow
grestore
gsave
/o {
gsave
newpath
translate
0 0 m
4 0 l
stroke
grestore
} bind def
73.125 200.9 o
grestore
gsave
/o {
gsave
newpath
translate
0 0 m
-4 0 l
stroke
grestore
} bind def
526.5 200.9 o
grestore
gsave
38.203125 196.360938 translate
0.000000 rotate
0.000000 0.171875 m /minus glyphshow
10.054688 0.171875 m /four glyphshow
17.689453 0.171875 m /zero glyphshow
25.324219 0.171875 m /zero glyphshow
grestore
gsave
/o {
gsave
newpath
translate
0 0 m
4 0 l
stroke
grestore
} bind def
73.125 240.1 o
grestore
gsave
/o {
gsave
newpath
translate
0 0 m
-4 0 l
stroke
grestore
} bind def
526.5 240.1 o
grestore
gsave
38.203125 235.560938 translate
0.000000 rotate
0.000000 0.171875 m /minus glyphshow
10.054688 0.171875 m /three glyphshow
17.689453 0.171875 m /zero glyphshow
25.324219 0.171875 m /zero glyphshow
grestore
gsave
/o {
gsave
newpath
translate
0 0 m
4 0 l
stroke
grestore
} bind def
73.125 279.3 o
grestore
gsave
/o {
gsave
newpath
translate
0 0 m
-4 0 l
stroke
grestore
} bind def
526.5 279.3 o
grestore
gsave
38.203125 274.760938 translate
0.000000 rotate
0.000000 0.171875 m /minus glyphshow
10.054688 0.171875 m /two glyphshow
17.689453 0.171875 m /zero glyphshow
25.324219 0.171875 m /zero glyphshow
grestore
gsave
/o {
gsave
newpath
translate
0 0 m
4 0 l
stroke
grestore
} bind def
73.125 318.5 o
grestore
gsave
/o {
gsave
newpath
translate
0 0 m
-4 0 l
stroke
grestore
} bind def
526.5 318.5 o
grestore
gsave
38.203125 313.960938 translate
0.000000 rotate
0.000000 0.171875 m /minus glyphshow
10.054688 0.171875 m /one glyphshow
17.689453 0.171875 m /zero glyphshow
25.324219 0.171875 m /zero glyphshow
grestore
gsave
/o {
gsave
newpath
translate
0 0 m
4 0 l
stroke
grestore
} bind def
73.125 357.7 o
grestore
gsave
/o {
gsave
newpath
translate
0 0 m
-4 0 l
stroke
grestore
} bind def
526.5 357.7 o
grestore
gsave
63.078125 353.160938 translate
0.000000 rotate
0.000000 0.171875 m /zero glyphshow
grestore
gsave
/o {
gsave
newpath
translate
0 0 m
4 0 l
stroke
grestore
} bind def
73.125 396.9 o
grestore
gsave
/o {
gsave
newpath
translate
0 0 m
-4 0 l
stroke
grestore
} bind def
526.5 396.9 o
grestore
gsave
48.312500 392.360938 translate
0.000000 rotate
0.000000 0.171875 m /one glyphshow
7.634766 0.171875 m /zero glyphshow
15.269531 0.171875 m /zero glyphshow
grestore
1.000 setlinewidth
2 setlinecap
gsave
73.125 396.9 m
526.5 396.9 l
stroke
grestore
gsave
526.5 44.1 m
526.5 396.9 l
stroke
grestore
gsave
73.125 44.1 m
526.5 44.1 l
stroke
grestore
gsave
73.125 44.1 m
73.125 396.9 l
stroke
grestore

end
showpage
